{
  "reservation": {
    "startDate": "2018-01-12T00:00:00",
    "endDate": "2019-01-15T00:00:00"
  },
  "rooms": [
    {
      "roomId": 1,
      "type": "Living room",
      "label": "OH",
      "location": {
        "position": "relative",
        "top": "10px",
        "left": "20px",
        "height": "260px",
        "width": "200px"
      },
      "controllables": [
        {
          "controllableId":1,
          "name":"Lights",
          "type": "light",
          "isPowered": false,
          "lastUsed": "4.1.2018",
          "idlePower": 5,
          "onIdle": false
        },
        {
          "controllableId":2,
          "name":"Gigaleditaivas",
          "type": "television",
          "isPowered": false,
          "lastUsed": "4.1.2018",
          "idlePower": 40,
          "onIdle": false
        },
        {
          "controllableId":3,
          "name":"Fish tank",
          "type": "aquarium",
          "isPowered": false,
          "lastUsed": "4.1.2018",
          "idlePower": 15,
          "onIdle": false
        }
      ]
    },
    {
      "roomId": 2,
      "type": "Bedroom",
      "label": "MH",
      "location": {
        "position": "relative",
        "top": "-250px",
        "left": "220px",
        "height": "140px",
        "width": "200px"
      },
      "controllables": [
        {
          "controllableId":4,
          "name":"Lights",
          "type": "light",
          "isPowered": false,
          "lastUsed": "4.1.2018",
          "idlePower": 5,
          "onIdle": false
        },
        {
          "controllableId":5,
          "name":"Computer",
          "type": "computer",
          "isPowered": false,
          "lastUsed": "4.1.2018",
          "idlePower": 40,
          "onIdle": false
        }
      ]
    },
    {
      "roomId": 3,
      "type": "Bathroom",
      "label": "PH",
      "location": {
        "position": "relative",
        "top": "-390px",
        "left": "420px",
        "height": "80px",
        "width": "100px"
      },
      "controllables": [
        {
          "controllableId":6,
          "name":"Lights",
          "type": "light",
          "isPowered": false,
          "lastUsed": "4.1.2018",
          "idlePower": 5,
          "onIdle": false
        },
        {
          "controllableId":7,
          "name":"Washing machine",
          "type": "washingmachine",
          "isPowered": false,
          "lastUsed": "4.1.2018",
          "idlePower": 30,
          "onIdle": false
        }
      ]
    },
    {
      "roomId": 4,
      "type": "Kitchen",
      "label": "K",
      "location": {
        "position": "relative",
        "top": "-210px",
        "left": "30px",
        "height": "75px",
        "width": "140px"
      },
      "controllables": [
        {
          "controllableId":8,
          "name":"Lights",
          "type": "light",
          "isPowered": false,
          "lastUsed": "4.1.2018",
          "idlePower": 5,
          "onIdle": false
        },
        {
          "controllableId":9,
          "name":"Oven",
          "type": "oven",
          "isPowered": false,
          "lastUsed": "4.1.2018",
          "idlePower": 40,
          "onIdle": false
        },
        {
          "controllableId":10,
          "name":"Dishwasher",
          "type": "dishwasher",
          "isPowered": false,
          "lastUsed": "4.1.2018",
          "idlePower": 30,
          "onIdle": false
        },
        {
          "controllableId":11,
          "name":"Microwave oven",
          "type": "microwave",
          "isPowered": false,
          "lastUsed": "4.1.2018",
          "idlePower": 20,
          "onIdle": false
        }
      ]
    }
  ]
}